{
  "formatVersion": 1,
  "database": {
    "version": 16,
    "identityHash": "f1aef10535565e33384aceebb83c8844",
    "entities": [
      {
        "tableName": "users",
        "createSql": "CREATE TABLE IF NOT EXISTS `${TABLE_NAME}` (`id` INTEGER PRIMARY KEY AUTOINCREMENT NOT NULL, `serverId` INTEGER, `fullName` TEXT NOT NULL, `status` TEXT NOT NULL, `login_attempts` TEXT NOT NULL, `first_time_login` INTEGER NOT NULL, `user_category` TEXT NOT NULL, `username` TEXT NOT NULL, `profile_image_path` TEXT NOT NULL, `email` TEXT NOT NULL, `contact` TEXT NOT NULL, `country_code` TEXT NOT NULL, `termsAndConditionsAccepted` INTEGER NOT NULL, `registration_date` TEXT NOT NULL, `last_login` TEXT NOT NULL, `user_type` TEXT NOT NULL, `registered_by` TEXT NOT NULL)",
        "fields": [
          {
            "fieldPath": "userId",
            "columnName": "id",
            "affinity": "INTEGER",
            "notNull": true
          },
          {
            "fieldPath": "serverId",
            "columnName": "serverId",
            "affinity": "INTEGER",
            "notNull": false
          },
          {
            "fieldPath": "fullName",
            "columnName": "fullName",
            "affinity": "TEXT",
            "notNull": true
          },
          {
            "fieldPath": "status",
            "columnName": "status",
            "affinity": "TEXT",
            "notNull": true
          },
          {
            "fieldPath": "loginAttempts",
            "columnName": "login_attempts",
            "affinity": "TEXT",
            "notNull": true
          },
          {
            "fieldPath": "firstTimeLogin",
            "columnName": "first_time_login",
            "affinity": "INTEGER",
            "notNull": true
          },
          {
            "fieldPath": "userCategory",
            "columnName": "user_category",
            "affinity": "TEXT",
            "notNull": true
          },
          {
            "fieldPath": "username",
            "columnName": "username",
            "affinity": "TEXT",
            "notNull": true
          },
          {
            "fieldPath": "profileImagePath",
            "columnName": "profile_image_path",
            "affinity": "TEXT",
            "notNull": true
          },
          {
            "fieldPath": "email",
            "columnName": "email",
            "affinity": "TEXT",
            "notNull": true
          },
          {
            "fieldPath": "contact",
            "columnName": "contact",
            "affinity": "TEXT",
            "notNull": true
          },
          {
            "fieldPath": "countryCode",
            "columnName": "country_code",
            "affinity": "TEXT",
            "notNull": true
          },
          {
            "fieldPath": "termsAndConditionsAccepted",
            "columnName": "termsAndConditionsAccepted",
            "affinity": "INTEGER",
            "notNull": true
          },
          {
            "fieldPath": "registrationDate",
            "columnName": "registration_date",
            "affinity": "TEXT",
            "notNull": true
          },
          {
            "fieldPath": "lastLogin",
            "columnName": "last_login",
            "affinity": "TEXT",
            "notNull": true
          },
          {
            "fieldPath": "userType",
            "columnName": "user_type",
            "affinity": "TEXT",
            "notNull": true
          },
          {
            "fieldPath": "registeredBy",
            "columnName": "registered_by",
            "affinity": "TEXT",
            "notNull": true
          }
        ],
        "primaryKey": {
          "columnNames": [
            "id"
          ],
          "autoGenerate": true
        },
        "indices": [],
        "foreignKeys": []
      },
      {
        "tableName": "services",
        "createSql": "CREATE TABLE IF NOT EXISTS `${TABLE_NAME}` (`id` INTEGER PRIMARY KEY AUTOINCREMENT, `name` TEXT NOT NULL, `serverId` INTEGER, `description` TEXT NOT NULL, `createdDate` INTEGER NOT NULL, `website` TEXT NOT NULL, `numberOfViews` INTEGER NOT NULL, `ranking` INTEGER NOT NULL, `likes` INTEGER NOT NULL, `status` TEXT NOT NULL, `subCategoryCode` TEXT NOT NULL, `contact` TEXT NOT NULL, `email` TEXT NOT NULL, `address` TEXT NOT NULL, `operations` TEXT NOT NULL, `location_name` TEXT NOT NULL, `location_coordinates` TEXT NOT NULL, `social_twitter` TEXT NOT NULL, `social_facebook` TEXT NOT NULL)",
        "fields": [
          {
            "fieldPath": "serviceId",
            "columnName": "id",
            "affinity": "INTEGER",
            "notNull": false
          },
          {
            "fieldPath": "name",
            "columnName": "name",
            "affinity": "TEXT",
            "notNull": true
          },
          {
            "fieldPath": "serverId",
            "columnName": "serverId",
            "affinity": "INTEGER",
            "notNull": false
          },
          {
            "fieldPath": "description",
            "columnName": "description",
            "affinity": "TEXT",
            "notNull": true
          },
          {
            "fieldPath": "createdDate",
            "columnName": "createdDate",
            "affinity": "INTEGER",
            "notNull": true
          },
          {
            "fieldPath": "website",
            "columnName": "website",
            "affinity": "TEXT",
            "notNull": true
          },
          {
            "fieldPath": "numberOfViews",
            "columnName": "numberOfViews",
            "affinity": "INTEGER",
            "notNull": true
          },
          {
            "fieldPath": "ranking",
            "columnName": "ranking",
            "affinity": "INTEGER",
            "notNull": true
          },
          {
            "fieldPath": "likes",
            "columnName": "likes",
            "affinity": "INTEGER",
            "notNull": true
          },
          {
            "fieldPath": "status",
            "columnName": "status",
            "affinity": "TEXT",
            "notNull": true
          },
          {
            "fieldPath": "subCategoryCode",
            "columnName": "subCategoryCode",
            "affinity": "TEXT",
            "notNull": true
          },
          {
            "fieldPath": "contact",
            "columnName": "contact",
            "affinity": "TEXT",
            "notNull": true
          },
          {
            "fieldPath": "email",
            "columnName": "email",
            "affinity": "TEXT",
            "notNull": true
          },
          {
            "fieldPath": "address",
            "columnName": "address",
            "affinity": "TEXT",
            "notNull": true
          },
          {
            "fieldPath": "operations",
            "columnName": "operations",
            "affinity": "TEXT",
            "notNull": true
          },
          {
            "fieldPath": "location.name",
            "columnName": "location_name",
            "affinity": "TEXT",
            "notNull": true
          },
          {
            "fieldPath": "location.coordinates",
            "columnName": "location_coordinates",
            "affinity": "TEXT",
            "notNull": true
          },
          {
            "fieldPath": "social.twitter",
            "columnName": "social_twitter",
            "affinity": "TEXT",
            "notNull": true
          },
          {
            "fieldPath": "social.facebook",
            "columnName": "social_facebook",
            "affinity": "TEXT",
            "notNull": true
          }
        ],
        "primaryKey": {
          "columnNames": [
            "id"
          ],
          "autoGenerate": true
        },
        "indices": [],
        "foreignKeys": []
      },
      {
        "tableName": "service_categories",
        "createSql": "CREATE TABLE IF NOT EXISTS `${TABLE_NAME}` (`id` INTEGER PRIMARY KEY AUTOINCREMENT, `description` TEXT NOT NULL, `created_date` TEXT NOT NULL, `created_by` TEXT NOT NULL, `status` TEXT NOT NULL, `category_code` TEXT NOT NULL, `category_name` TEXT NOT NULL, `image_url` TEXT NOT NULL, `service_category_id` INTEGER)",
        "fields": [
          {
            "fieldPath": "serviceId",
            "columnName": "id",
            "affinity": "INTEGER",
            "notNull": false
          },
          {
            "fieldPath": "description",
            "columnName": "description",
            "affinity": "TEXT",
            "notNull": true
          },
          {
            "fieldPath": "createdDate",
            "columnName": "created_date",
            "affinity": "TEXT",
            "notNull": true
          },
          {
            "fieldPath": "createdBy",
            "columnName": "created_by",
            "affinity": "TEXT",
            "notNull": true
          },
          {
            "fieldPath": "status",
            "columnName": "status",
            "affinity": "TEXT",
            "notNull": true
          },
          {
            "fieldPath": "categoryCode",
            "columnName": "category_code",
            "affinity": "TEXT",
            "notNull": true
          },
          {
            "fieldPath": "categoryName",
            "columnName": "category_name",
            "affinity": "TEXT",
            "notNull": true
          },
          {
            "fieldPath": "imageUrl",
            "columnName": "image_url",
            "affinity": "TEXT",
            "notNull": true
          },
          {
            "fieldPath": "serviceCategoryId",
            "columnName": "service_category_id",
            "affinity": "INTEGER",
            "notNull": false
          }
        ],
        "primaryKey": {
          "columnNames": [
            "id"
          ],
          "autoGenerate": true
        },
        "indices": [],
        "foreignKeys": []
      },
      {
        "tableName": "countries",
        "createSql": "CREATE TABLE IF NOT EXISTS `${TABLE_NAME}` (`id` INTEGER PRIMARY KEY AUTOINCREMENT, `name` TEXT NOT NULL, `code` TEXT NOT NULL, `prefix` TEXT NOT NULL, `imagePath` TEXT NOT NULL, `countryServerid` INTEGER)",
        "fields": [
          {
            "fieldPath": "countryId",
            "columnName": "id",
            "affinity": "INTEGER",
            "notNull": false
          },
          {
            "fieldPath": "name",
            "columnName": "name",
            "affinity": "TEXT",
            "notNull": true
          },
          {
            "fieldPath": "code",
            "columnName": "code",
            "affinity": "TEXT",
            "notNull": true
          },
          {
            "fieldPath": "prefix",
            "columnName": "prefix",
            "affinity": "TEXT",
            "notNull": true
          },
          {
            "fieldPath": "imagePath",
            "columnName": "imagePath",
            "affinity": "TEXT",
            "notNull": true
          },
          {
            "fieldPath": "countryServerid",
            "columnName": "countryServerid",
            "affinity": "INTEGER",
            "notNull": false
          }
        ],
        "primaryKey": {
          "columnNames": [
            "id"
          ],
          "autoGenerate": true
        },
        "indices": [],
        "foreignKeys": []
      },
      {
        "tableName": "settings",
        "createSql": "CREATE TABLE IF NOT EXISTS `${TABLE_NAME}` (`id` INTEGER PRIMARY KEY AUTOINCREMENT, `value` TEXT)",
        "fields": [
          {
            "fieldPath": "settingId",
            "columnName": "id",
            "affinity": "INTEGER",
            "notNull": false
          },
          {
            "fieldPath": "tnc.value",
            "columnName": "value",
            "affinity": "TEXT",
            "notNull": false
          }
        ],
        "primaryKey": {
          "columnNames": [
            "id"
          ],
          "autoGenerate": true
        },
        "indices": [],
        "foreignKeys": []
      }
    ],
    "setupQueries": [
      "CREATE TABLE IF NOT EXISTS room_master_table (id INTEGER PRIMARY KEY,identity_hash TEXT)",
      "INSERT OR REPLACE INTO room_master_table (id,identity_hash) VALUES(42, \"f1aef10535565e33384aceebb83c8844\")"
    ]
  }
}